{
  "cordova-plugin-whitelist": {
    "source": {
      "type": "registry",
      "id": "cordova-plugin-whitelist@1.3.3"
    },
    "is_top_level": true,
    "variables": {}
  },
  "cordova-plugin-statusbar": {
    "source": {
      "type": "registry",
      "id": "cordova-plugin-statusbar@2.4.2"
    },
    "is_top_level": true,
    "variables": {}
  },
  "cordova-plugin-device": {
    "source": {
      "type": "registry",
      "id": "cordova-plugin-device@2.0.2"
    },
    "is_top_level": true,
    "variables": {}
  },
  "cordova-plugin-splashscreen": {
    "source": {
      "type": "registry",
      "id": "cordova-plugin-splashscreen@5.0.2"
    },
    "is_top_level": true,
    "variables": {}
  },
  "cordova-plugin-ionic-webview": {
    "source": {
      "type": "registry",
      "id": "cordova-plugin-ionic-webview@^4.0.0"
    },
    "is_top_level": true,
    "variables": {
      "ANDROID_SUPPORT_ANNOTATIONS_VERSION": "27.+"
    }
  },
  "cordova-plugin-ionic-keyboard": {
    "source": {
      "type": "registry",
      "id": "cordova-plugin-ionic-keyboard@^2.0.5"
    },
    "is_top_level": true,
    "variables": {}
  },
  "cordova-plugin-appminimize": {
    "source": {
      "type": "registry",
      "id": "cordova-plugin-appminimize@^1.0.1"
    },
    "is_top_level": true,
    "variables": {}
  },
  "cordova-plugin-local-notification": {
    "source": {
      "type": "registry",
      "id": "cordova-plugin-local-notification@^0.9.0-beta.2"
    },
    "is_top_level": true,
    "variables": {}
  },
  "cordova-plugin-badge": {
    "source": {
      "type": "registry",
      "id": "cordova-plugin-badge@>=0.8.5"
    },
    "is_top_level": false,
    "variables": {}
  },
  "cordova-plugin-vibration": {
    "source": {
      "type": "registry",
      "id": "cordova-plugin-vibration@^3.1.1"
    },
    "is_top_level": true,
    "variables": {}
  },
  "cordova-plugin-crop": {
    "source": {
      "type": "registry",
      "id": "cordova-plugin-crop@^0.4.0"
    },
    "is_top_level": true,
    "variables": {}
  },
  "com.telerik.plugins.nativepagetransitions": {
    "source": {
      "type": "registry",
      "id": "com.telerik.plugins.nativepagetransitions@^0.7.0"
    },
    "is_top_level": true,
    "variables": {}
  },
  "cordova-plugin-geolocation": {
    "source": {
      "type": "registry",
      "id": "cordova-plugin-geolocation@^4.1.0"
    },
    "is_top_level": true,
    "variables": {
      "GPS_REQUIRED": "true"
    }
  },
  "cordova-plugin-nativegeocoder": {
    "source": {
      "type": "registry",
      "id": "cordova-plugin-nativegeocoder@^3.4.1"
    },
    "is_top_level": true,
    "variables": {
      "LOCATION_WHEN_IN_USE_DESCRIPTION": "Use geocoder service"
    }
  },
  "cordova-plugin-add-swift-support": {
    "source": {
      "type": "registry",
      "id": "cordova-plugin-add-swift-support@2.0.2"
    },
    "is_top_level": false,
    "variables": {}
  },
  "cordova-plugin-nativeaudio": {
    "source": {
      "type": "registry",
      "id": "cordova-plugin-nativeaudio@^3.0.9"
    },
    "is_top_level": true,
    "variables": {}
  },
  "cordova-plugin-nativestorage": {
    "source": {
      "type": "registry",
      "id": "cordova-plugin-nativestorage@^2.3.2"
    },
    "is_top_level": true,
    "variables": {}
  },
  "cordova-sqlite-storage": {
    "source": {
      "type": "registry",
      "id": "cordova-sqlite-storage@^4.0.0"
    },
    "is_top_level": true,
    "variables": {}
  },
  "cordova-plugin-camera": {
    "source": {
      "type": "registry",
      "id": "cordova-plugin-camera@^4.1.0"
    },
    "is_top_level": true,
    "variables": {
      "ANDROID_SUPPORT_V4_VERSION": "27.+"
    }
  },
  "cordova-plugin-android-permissions": {
    "source": {
      "type": "registry",
      "id": "cordova-plugin-android-permissions@^1.0.2"
    },
    "is_top_level": true,
    "variables": {}
  },
  "cordova-plugin-file-transfer": {
    "source": {
      "type": "registry",
      "id": "cordova-plugin-file-transfer@^1.7.1"
    },
    "is_top_level": true,
    "variables": {}
  },
  "cordova-plugin-file": {
    "source": {
      "type": "registry",
      "id": "cordova-plugin-file@>=5.0.0"
    },
    "is_top_level": false,
    "variables": {}
  },
  "cordova-plugin-iosrtc": {
    "source": {
      "type": "registry",
      "id": "cordova-plugin-iosrtc@^6.0.16"
    },
    "is_top_level": true,
    "variables": {}
  }
}